{
  "data":{
     "recent_tracks":{
        "items":[
           {
              "external_urls":{
                 "spotify":"https://open.spotify.com/artist/5K4W6rqBFWDnAN6FQUkS6x"
              },
              "followers":{
                 "href":null,
                 "total":0
              },
              "genres":[
                 "chicago rap",
                 "hip hop",
                 "rap"
              ],
              "href":"https://api.spotify.com/v1/artists/5K4W6rqBFWDnAN6FQUkS6x",
              "id":"5K4W6rqBFWDnAN6FQUkS6x",
              "images":[
                 {
                    "height":640,
                    "url":"https://i.scdn.co/image/ab6761610000e5eb867008a971fae0f4d913f63a",
                    "width":640
                 },
                 {
                    "height":320,
                    "url":"https://i.scdn.co/image/ab67616100005174867008a971fae0f4d913f63a",
                    "width":320
                 },
                 {
                    "height":160,
                    "url":"https://i.scdn.co/image/ab6761610000f178867008a971fae0f4d913f63a",
                    "width":160
                 }
              ],
              "name":"Kanye West",
              "popularity":90,
              "type":"artist",
              "uri":"spotify:artist:5K4W6rqBFWDnAN6FQUkS6x"
           },
           {
              "external_urls":{
                 "spotify":"https://open.spotify.com/artist/2LIk90788K0zvyj2JJVwkJ"
              },
              "followers":{
                 "href":null,
                 "total":0
              },
              "genres":[
                 "deep underground hip hop",
                 "kentucky hip hop",
                 "pop rap",
                 "rap"
              ],
              "href":"https://api.spotify.com/v1/artists/2LIk90788K0zvyj2JJVwkJ",
              "id":"2LIk90788K0zvyj2JJVwkJ",
              "images":[
                 {
                    "height":640,
                    "url":"https://i.scdn.co/image/ab6761610000e5eb75559132f961dcf3ba4f5c7a",
                    "width":640
                 },
                 {
                    "height":320,
                    "url":"https://i.scdn.co/image/ab6761610000517475559132f961dcf3ba4f5c7a",
                    "width":320
                 },
                 {
                    "height":160,
                    "url":"https://i.scdn.co/image/ab6761610000f17875559132f961dcf3ba4f5c7a",
                    "width":160
                 }
              ],
              "name":"Jack Harlow",
              "popularity":79,
              "type":"artist",
              "uri":"spotify:artist:2LIk90788K0zvyj2JJVwkJ"
           },
           {
              "external_urls":{
                 "spotify":"https://open.spotify.com/artist/4q3ewBCX7sLwd24euuV69X"
              },
              "followers":{
                 "href":null,
                 "total":0
              },
              "genres":[
                 "reggaeton",
                 "trap latino",
                 "urbano latino"
              ],
              "href":"https://api.spotify.com/v1/artists/4q3ewBCX7sLwd24euuV69X",
              "id":"4q3ewBCX7sLwd24euuV69X",
              "images":[
                 {
                    "height":640,
                    "url":"https://i.scdn.co/image/ab6761610000e5eb9ad50e478a469448c6f369df",
                    "width":640
                 },
                 {
                    "height":320,
                    "url":"https://i.scdn.co/image/ab676161000051749ad50e478a469448c6f369df",
                    "width":320
                 },
                 {
                    "height":160,
                    "url":"https://i.scdn.co/image/ab6761610000f1789ad50e478a469448c6f369df",
                    "width":160
                 }
              ],
              "name":"Bad Bunny",
              "popularity":94,
              "type":"artist",
              "uri":"spotify:artist:4q3ewBCX7sLwd24euuV69X"
           },
           {
              "external_urls":{
                 "spotify":"https://open.spotify.com/artist/2YZyLoL8N0Wb9xBt1NhZWg"
              },
              "followers":{
                 "href":null,
                 "total":0
              },
              "genres":[
                 "conscious hip hop",
                 "hip hop",
                 "rap",
                 "west coast rap"
              ],
              "href":"https://api.spotify.com/v1/artists/2YZyLoL8N0Wb9xBt1NhZWg",
              "id":"2YZyLoL8N0Wb9xBt1NhZWg",
              "images":[
                 {
                    "height":640,
                    "url":"https://i.scdn.co/image/ab6761610000e5eb437b9e2a82505b3d93ff1022",
                    "width":640
                 },
                 {
                    "height":320,
                    "url":"https://i.scdn.co/image/ab67616100005174437b9e2a82505b3d93ff1022",
                    "width":320
                 },
                 {
                    "height":160,
                    "url":"https://i.scdn.co/image/ab6761610000f178437b9e2a82505b3d93ff1022",
                    "width":160
                 }
              ],
              "name":"Kendrick Lamar",
              "popularity":87,
              "type":"artist",
              "uri":"spotify:artist:2YZyLoL8N0Wb9xBt1NhZWg"
           },
           {
              "external_urls":{
                 "spotify":"https://open.spotify.com/artist/3TVXtAsR1Inumwj472S9r4"
              },
              "followers":{
                 "href":null,
                 "total":0
              },
              "genres":[
                 "canadian hip hop",
                 "canadian pop",
                 "hip hop",
                 "pop rap",
                 "rap"
              ],
              "href":"https://api.spotify.com/v1/artists/3TVXtAsR1Inumwj472S9r4",
              "id":"3TVXtAsR1Inumwj472S9r4",
              "images":[
                 {
                    "height":640,
                    "url":"https://i.scdn.co/image/ab6761610000e5eb4293385d324db8558179afd9",
                    "width":640
                 },
                 {
                    "height":320,
                    "url":"https://i.scdn.co/image/ab676161000051744293385d324db8558179afd9",
                    "width":320
                 },
                 {
                    "height":160,
                    "url":"https://i.scdn.co/image/ab6761610000f1784293385d324db8558179afd9",
                    "width":160
                 }
              ],
              "name":"Drake",
              "popularity":95,
              "type":"artist",
              "uri":"spotify:artist:3TVXtAsR1Inumwj472S9r4"
           },
           {
              "external_urls":{
                 "spotify":"https://open.spotify.com/artist/6nS5roXSAGhTGr34W6n7Et"
              },
              "followers":{
                 "href":null,
                 "total":0
              },
              "genres":[
                 "edm",
                 "house",
                 "indietronica",
                 "uk dance"
              ],
              "href":"https://api.spotify.com/v1/artists/6nS5roXSAGhTGr34W6n7Et",
              "id":"6nS5roXSAGhTGr34W6n7Et",
              "images":[
                 {
                    "height":640,
                    "url":"https://i.scdn.co/image/ab6761610000e5ebc7150fb3cbf60e201ae90840",
                    "width":640
                 },
                 {
                    "height":320,
                    "url":"https://i.scdn.co/image/ab67616100005174c7150fb3cbf60e201ae90840",
                    "width":320
                 },
                 {
                    "height":160,
                    "url":"https://i.scdn.co/image/ab6761610000f178c7150fb3cbf60e201ae90840",
                    "width":160
                 }
              ],
              "name":"Disclosure",
              "popularity":71,
              "type":"artist",
              "uri":"spotify:artist:6nS5roXSAGhTGr34W6n7Et"
           },
           {
              "external_urls":{
                 "spotify":"https://open.spotify.com/artist/0ONHkAv9pCAFxb0zJwDNTy"
              },
              "followers":{
                 "href":null,
                 "total":0
              },
              "genres":[
                 "gangster rap",
                 "hip hop",
                 "pop rap",
                 "rap",
                 "southern hip hop",
                 "trap",
                 "virginia hip hop"
              ],
              "href":"https://api.spotify.com/v1/artists/0ONHkAv9pCAFxb0zJwDNTy",
              "id":"0ONHkAv9pCAFxb0zJwDNTy",
              "images":[
                 {
                    "height":640,
                    "url":"https://i.scdn.co/image/ab6761610000e5ebc5b88a3924d8318f25f20594",
                    "width":640
                 },
                 {
                    "height":320,
                    "url":"https://i.scdn.co/image/ab67616100005174c5b88a3924d8318f25f20594",
                    "width":320
                 },
                 {
                    "height":160,
                    "url":"https://i.scdn.co/image/ab6761610000f178c5b88a3924d8318f25f20594",
                    "width":160
                 }
              ],
              "name":"Pusha T",
              "popularity":70,
              "type":"artist",
              "uri":"spotify:artist:0ONHkAv9pCAFxb0zJwDNTy"
           },
           {
              "external_urls":{
                 "spotify":"https://open.spotify.com/artist/1JPy5PsJtkhftfdr6saN2i"
              },
              "followers":{
                 "href":null,
                 "total":0
              },
              "genres":[
                 "bass music",
                 "breakbeat",
                 "brostep",
                 "edm",
                 "glitch hop"
              ],
              "href":"https://api.spotify.com/v1/artists/1JPy5PsJtkhftfdr6saN2i",
              "id":"1JPy5PsJtkhftfdr6saN2i",
              "images":[
                 {
                    "height":640,
                    "url":"https://i.scdn.co/image/ab6761610000e5eb3cd960847870fd1d568e8a1b",
                    "width":640
                 },
                 {
                    "height":320,
                    "url":"https://i.scdn.co/image/ab676161000051743cd960847870fd1d568e8a1b",
                    "width":320
                 },
                 {
                    "height":160,
                    "url":"https://i.scdn.co/image/ab6761610000f1783cd960847870fd1d568e8a1b",
                    "width":160
                 }
              ],
              "name":"Bassnectar",
              "popularity":52,
              "type":"artist",
              "uri":"spotify:artist:1JPy5PsJtkhftfdr6saN2i"
           },
           {
              "external_urls":{
                 "spotify":"https://open.spotify.com/artist/5R3Hr2cnCCjt220Jmt2xLf"
              },
              "followers":{
                 "href":null,
                 "total":0
              },
              "genres":[
                 "brostep",
                 "edm",
                 "electro house",
                 "moombahton",
                 "pop dance",
                 "progressive electro house",
                 "slap house"
              ],
              "href":"https://api.spotify.com/v1/artists/5R3Hr2cnCCjt220Jmt2xLf",
              "id":"5R3Hr2cnCCjt220Jmt2xLf",
              "images":[
                 {
                    "height":640,
                    "url":"https://i.scdn.co/image/ab6761610000e5ebc61c75f2f76dbcd5f49a3e8c",
                    "width":640
                 },
                 {
                    "height":320,
                    "url":"https://i.scdn.co/image/ab67616100005174c61c75f2f76dbcd5f49a3e8c",
                    "width":320
                 },
                 {
                    "height":160,
                    "url":"https://i.scdn.co/image/ab6761610000f178c61c75f2f76dbcd5f49a3e8c",
                    "width":160
                 }
              ],
              "name":"Dillon Francis",
              "popularity":63,
              "type":"artist",
              "uri":"spotify:artist:5R3Hr2cnCCjt220Jmt2xLf"
           },
           {
              "external_urls":{
                 "spotify":"https://open.spotify.com/artist/0QHgL1lAIqAw0HtD7YldmP"
              },
              "followers":{
                 "href":null,
                 "total":0
              },
              "genres":[
                 "hip hop",
                 "miami hip hop",
                 "pop rap",
                 "rap"
              ],
              "href":"https://api.spotify.com/v1/artists/0QHgL1lAIqAw0HtD7YldmP",
              "id":"0QHgL1lAIqAw0HtD7YldmP",
              "images":[
                 {
                    "height":640,
                    "url":"https://i.scdn.co/image/ab6761610000e5eb084f36c2ae2da4a02494e1e5",
                    "width":640
                 },
                 {
                    "height":320,
                    "url":"https://i.scdn.co/image/ab67616100005174084f36c2ae2da4a02494e1e5",
                    "width":320
                 },
                 {
                    "height":160,
                    "url":"https://i.scdn.co/image/ab6761610000f178084f36c2ae2da4a02494e1e5",
                    "width":160
                 }
              ],
              "name":"DJ Khaled",
              "popularity":76,
              "type":"artist",
              "uri":"spotify:artist:0QHgL1lAIqAw0HtD7YldmP"
           },
           {
              "external_urls":{
                 "spotify":"https://open.spotify.com/artist/1h6Cn3P4NGzXbaXidqURXs"
              },
              "followers":{
                 "href":null,
                 "total":0
              },
              "genres":[
                 "edm",
                 "pop dance",
                 "progressive electro house"
              ],
              "href":"https://api.spotify.com/v1/artists/1h6Cn3P4NGzXbaXidqURXs",
              "id":"1h6Cn3P4NGzXbaXidqURXs",
              "images":[
                 {
                    "height":640,
                    "url":"https://i.scdn.co/image/ab6761610000e5eb3acc752dbb488a55fffa9af8",
                    "width":640
                 },
                 {
                    "height":320,
                    "url":"https://i.scdn.co/image/ab676161000051743acc752dbb488a55fffa9af8",
                    "width":320
                 },
                 {
                    "height":160,
                    "url":"https://i.scdn.co/image/ab6761610000f1783acc752dbb488a55fffa9af8",
                    "width":160
                 }
              ],
              "name":"Swedish House Mafia",
              "popularity":75,
              "type":"artist",
              "uri":"spotify:artist:1h6Cn3P4NGzXbaXidqURXs"
           },
           {
              "external_urls":{
                 "spotify":"https://open.spotify.com/artist/4xRYI6VqpkE3UwrDrAZL8L"
              },
              "followers":{
                 "href":null,
                 "total":0
              },
              "genres":[
                 "conscious hip hop",
                 "hip hop",
                 "pop rap",
                 "rap"
              ],
              "href":"https://api.spotify.com/v1/artists/4xRYI6VqpkE3UwrDrAZL8L",
              "id":"4xRYI6VqpkE3UwrDrAZL8L",
              "images":[
                 {
                    "height":640,
                    "url":"https://i.scdn.co/image/ab6761610000e5eb6581cd61841a546e8ba1dc1f",
                    "width":640
                 },
                 {
                    "height":320,
                    "url":"https://i.scdn.co/image/ab676161000051746581cd61841a546e8ba1dc1f",
                    "width":320
                 },
                 {
                    "height":160,
                    "url":"https://i.scdn.co/image/ab6761610000f1786581cd61841a546e8ba1dc1f",
                    "width":160
                 }
              ],
              "name":"Logic",
              "popularity":74,
              "type":"artist",
              "uri":"spotify:artist:4xRYI6VqpkE3UwrDrAZL8L"
           },
           {
              "external_urls":{
                 "spotify":"https://open.spotify.com/artist/540vIaP2JwjQb9dm3aArA4"
              },
              "followers":{
                 "href":null,
                 "total":0
              },
              "genres":[
                 "edm",
                 "electronic trap",
                 "pop",
                 "pop dance"
              ],
              "href":"https://api.spotify.com/v1/artists/540vIaP2JwjQb9dm3aArA4",
              "id":"540vIaP2JwjQb9dm3aArA4",
              "images":[
                 {
                    "height":640,
                    "url":"https://i.scdn.co/image/ab6761610000e5eb052c6638920e98337d529b7e",
                    "width":640
                 },
                 {
                    "height":320,
                    "url":"https://i.scdn.co/image/ab67616100005174052c6638920e98337d529b7e",
                    "width":320
                 },
                 {
                    "height":160,
                    "url":"https://i.scdn.co/image/ab6761610000f178052c6638920e98337d529b7e",
                    "width":160
                 }
              ],
              "name":"DJ Snake",
              "popularity":76,
              "type":"artist",
              "uri":"spotify:artist:540vIaP2JwjQb9dm3aArA4"
           },
           {
              "external_urls":{
                 "spotify":"https://open.spotify.com/artist/6l3HvQ5sa6mXTsMTB19rO5"
              },
              "followers":{
                 "href":null,
                 "total":0
              },
              "genres":[
                 "conscious hip hop",
                 "hip hop",
                 "north carolina hip hop",
                 "rap"
              ],
              "href":"https://api.spotify.com/v1/artists/6l3HvQ5sa6mXTsMTB19rO5",
              "id":"6l3HvQ5sa6mXTsMTB19rO5",
              "images":[
                 {
                    "height":640,
                    "url":"https://i.scdn.co/image/ab6761610000e5ebadd503b411a712e277895c8a",
                    "width":640
                 },
                 {
                    "height":320,
                    "url":"https://i.scdn.co/image/ab67616100005174add503b411a712e277895c8a",
                    "width":320
                 },
                 {
                    "height":160,
                    "url":"https://i.scdn.co/image/ab6761610000f178add503b411a712e277895c8a",
                    "width":160
                 }
              ],
              "name":"J. Cole",
              "popularity":85,
              "type":"artist",
              "uri":"spotify:artist:6l3HvQ5sa6mXTsMTB19rO5"
           },
           {
              "external_urls":{
                 "spotify":"https://open.spotify.com/artist/1anyVhU62p31KFi8MEzkbf"
              },
              "followers":{
                 "href":null,
                 "total":0
              },
              "genres":[
                 "chicago rap",
                 "conscious hip hop",
                 "hip hop",
                 "pop rap",
                 "rap"
              ],
              "href":"https://api.spotify.com/v1/artists/1anyVhU62p31KFi8MEzkbf",
              "id":"1anyVhU62p31KFi8MEzkbf",
              "images":[
                 {
                    "height":640,
                    "url":"https://i.scdn.co/image/ab6761610000e5eba6ab3c4df02cec59758ae3fa",
                    "width":640
                 },
                 {
                    "height":320,
                    "url":"https://i.scdn.co/image/ab67616100005174a6ab3c4df02cec59758ae3fa",
                    "width":320
                 },
                 {
                    "height":160,
                    "url":"https://i.scdn.co/image/ab6761610000f178a6ab3c4df02cec59758ae3fa",
                    "width":160
                 }
              ],
              "name":"Chance the Rapper",
              "popularity":72,
              "type":"artist",
              "uri":"spotify:artist:1anyVhU62p31KFi8MEzkbf"
           },
           {
              "external_urls":{
                 "spotify":"https://open.spotify.com/artist/2oQX8QiMXOyuqbcZEFsZfm"
              },
              "followers":{
                 "href":null,
                 "total":0
              },
              "genres":[
                 "dembow",
                 "rap dominicano",
                 "trap latino",
                 "urbano latino"
              ],
              "href":"https://api.spotify.com/v1/artists/2oQX8QiMXOyuqbcZEFsZfm",
              "id":"2oQX8QiMXOyuqbcZEFsZfm",
              "images":[
                 {
                    "height":640,
                    "url":"https://i.scdn.co/image/ab6761610000e5eba97f2c907b36d3c1d8e58397",
                    "width":640
                 },
                 {
                    "height":320,
                    "url":"https://i.scdn.co/image/ab67616100005174a97f2c907b36d3c1d8e58397",
                    "width":320
                 },
                 {
                    "height":160,
                    "url":"https://i.scdn.co/image/ab6761610000f178a97f2c907b36d3c1d8e58397",
                    "width":160
                 }
              ],
              "name":"El Alfa",
              "popularity":77,
              "type":"artist",
              "uri":"spotify:artist:2oQX8QiMXOyuqbcZEFsZfm"
           },
           {
              "external_urls":{
                 "spotify":"https://open.spotify.com/artist/11FY888Qctoy6YueCpFkXT"
              },
              "followers":{
                 "href":null,
                 "total":0
              },
              "genres":[
                 "dreamo",
                 "emo",
                 "philly indie",
                 "post-hardcore",
                 "progressive post-hardcore",
                 "screamo"
              ],
              "href":"https://api.spotify.com/v1/artists/11FY888Qctoy6YueCpFkXT",
              "id":"11FY888Qctoy6YueCpFkXT",
              "images":[
                 {
                    "height":640,
                    "url":"https://i.scdn.co/image/ab6761610000e5eba25def9afcb07f4045982ddc",
                    "width":640
                 },
                 {
                    "height":320,
                    "url":"https://i.scdn.co/image/ab67616100005174a25def9afcb07f4045982ddc",
                    "width":320
                 },
                 {
                    "height":160,
                    "url":"https://i.scdn.co/image/ab6761610000f178a25def9afcb07f4045982ddc",
                    "width":160
                 }
              ],
              "name":"Circa Survive",
              "popularity":49,
              "type":"artist",
              "uri":"spotify:artist:11FY888Qctoy6YueCpFkXT"
           },
           {
              "external_urls":{
                 "spotify":"https://open.spotify.com/artist/7CajNmpbOovFoOoasH2HaY"
              },
              "followers":{
                 "href":null,
                 "total":0
              },
              "genres":[
                 "dance pop",
                 "edm",
                 "electro house",
                 "house",
                 "pop",
                 "progressive house",
                 "uk dance"
              ],
              "href":"https://api.spotify.com/v1/artists/7CajNmpbOovFoOoasH2HaY",
              "id":"7CajNmpbOovFoOoasH2HaY",
              "images":[
                 {
                    "height":640,
                    "url":"https://i.scdn.co/image/ab6761610000e5eb37bff6aa1d42bede9048750f",
                    "width":640
                 },
                 {
                    "height":320,
                    "url":"https://i.scdn.co/image/ab6761610000517437bff6aa1d42bede9048750f",
                    "width":320
                 },
                 {
                    "height":160,
                    "url":"https://i.scdn.co/image/ab6761610000f17837bff6aa1d42bede9048750f",
                    "width":160
                 }
              ],
              "name":"Calvin Harris",
              "popularity":85,
              "type":"artist",
              "uri":"spotify:artist:7CajNmpbOovFoOoasH2HaY"
           },
           {
              "external_urls":{
                 "spotify":"https://open.spotify.com/artist/21mKp7DqtSNHhCAU2ugvUw"
              },
              "followers":{
                 "href":null,
                 "total":0
              },
              "genres":[
                 "chillwave",
                 "edm",
                 "indietronica"
              ],
              "href":"https://api.spotify.com/v1/artists/21mKp7DqtSNHhCAU2ugvUw",
              "id":"21mKp7DqtSNHhCAU2ugvUw",
              "images":[
                 {
                    "height":640,
                    "url":"https://i.scdn.co/image/ab6761610000e5eb9f4a0cbfcc9b274344681ccb",
                    "width":640
                 },
                 {
                    "height":320,
                    "url":"https://i.scdn.co/image/ab676161000051749f4a0cbfcc9b274344681ccb",
                    "width":320
                 },
                 {
                    "height":160,
                    "url":"https://i.scdn.co/image/ab6761610000f1789f4a0cbfcc9b274344681ccb",
                    "width":160
                 }
              ],
              "name":"ODESZA",
              "popularity":69,
              "type":"artist",
              "uri":"spotify:artist:21mKp7DqtSNHhCAU2ugvUw"
           },
           {
              "external_urls":{
                 "spotify":"https://open.spotify.com/artist/34EP7KEpOjXcM2TCat1ISk"
              },
              "followers":{
                 "href":null,
                 "total":0
              },
              "genres":[
                 "east coast hip hop",
                 "gangster rap",
                 "hardcore hip hop",
                 "hip hop",
                 "rap"
              ],
              "href":"https://api.spotify.com/v1/artists/34EP7KEpOjXcM2TCat1ISk",
              "id":"34EP7KEpOjXcM2TCat1ISk",
              "images":[
                 {
                    "height":640,
                    "url":"https://i.scdn.co/image/ab6761610000e5ebe60866298962b71792b2bf1a",
                    "width":640
                 },
                 {
                    "height":320,
                    "url":"https://i.scdn.co/image/ab67616100005174e60866298962b71792b2bf1a",
                    "width":320
                 },
                 {
                    "height":160,
                    "url":"https://i.scdn.co/image/ab6761610000f178e60866298962b71792b2bf1a",
                    "width":160
                 }
              ],
              "name":"Wu-Tang Clan",
              "popularity":67,
              "type":"artist",
              "uri":"spotify:artist:34EP7KEpOjXcM2TCat1ISk"
           }
        ],
        "total":50,
        "limit":20,
        "offset":0,
        "href":"https://api.spotify.com/v1/me/top/artists",
        "next":"https://api.spotify.com/v1/me/top/artists?limit=20&offset=20",
        "previous":null
     }
  },
  "status":200,
  "statusText":"OK",
  "headers":{
     "content-length":"14150",
     "content-type":"application/json; charset=utf-8"
  },
  "config":{
     "transitional":{
        "silentJSONParsing":true,
        "forcedJSONParsing":true,
        "clarifyTimeoutError":false
     },
     "adapter":[
        "xhr",
        "http"
     ],
     "transformRequest":[
        null
     ],
     "transformResponse":[
        null
     ],
     "timeout":0,
     "xsrfCookieName":"XSRF-TOKEN",
     "xsrfHeaderName":"X-XSRF-TOKEN",
     "maxContentLength":-1,
     "maxBodyLength":-1,
     "env":{
        
     },
     "headers":{
        "Accept":"application/json, text/plain, */*"
     },
     "baseURL":"http://127.0.0.1:3000/",
     "Content-Type":"application/json",
     "method":"post",
     "url":"recent-tracks"
  },
  "request":"[object XMLHttpRequest]"
}